R programming with tidyverse – R Café
…
How to use: ?pivot_longer()

Make the data “longer”

covid_cases <- covid_cases %>% 
  pivot_longer(
    cols = -date,
    names_to = "country", 
    names_pattern = "cases_(.+)",
    values_to = "cases"
  )
covid_cases

# A tibble: 19,412 × 3
   date       country cases
   <date>     <chr>   <dbl>
 1 2020-01-20 chn         0
 2 2020-01-20 kor         0
 3 2020-01-20 aus         0
 4 2020-01-20 jpn         0
 5 2020-01-20 mys         0
 6 2020-01-20 phl         0
 7 2020-01-20 sgp         0
 8 2020-01-20 nzl         0
 9 2020-01-20 vnm         0
10 2020-01-20 brn         0
# ℹ 19,402 more rows
…
